Into ArchiveTime set:Monday, January 11, 2016 12:58:15 AM
Into Fetch MCU Method:Monday, January 11, 2016 12:58:33 AM
Into CDR Method:Monday, January 11, 2016 12:58:33 AM
Into timerCompletedCalls_Elapsed Method:1/11/2016 12:58:34 AM
Into UpdateCompletedConferences... 1/11/2016 12:58:34 AM
********** Entering into the GenerateBatchReport**************
<report><configpath>e:\myvrm-2013\myvrmreminders\bin\debug\VRMSchemas\</configpath><Destination>C:\myVRM\Website\image\MailAttachments</Destination></report>
After PollCDRThread command:Monday, January 11, 2016 12:58:34 AM
After FetchMCUInfo command:Monday, January 11, 2016 12:58:34 AM
<success>1</success>
UpdateCompletedConferences OUTXML: <conferenceList><HDConfCount>0</HDConfCount></conferenceList>
********** Finished GenerateBatchReport***********************
Exiting timerCompletedCalls_Elapsed....1/11/2016 12:58:39 AM
